Challenge #25/Final Results/dump.vcd
$version Generated by VerilatedVcd $end
$timescale 1ps $end
 $scope module  $end
  $var wire 1 # clk $end
  $var wire 1 $ rst $end
  $var wire 1 % sck $end
  $var wire 1 & mosi $end
  $var wire 1 ' cs $end
  $var wire 1 ( miso $end
  $scope module qr_wrapper $end
   $var wire 1 ) clk $end
   $var wire 1 * rst $end
   $var wire 1 + sck $end
   $var wire 1 , mosi $end
   $var wire 1 - cs $end
   $var wire 1 . miso $end
   $scope module uut $end
    $var wire 32 [# DATA_WIDTH [31:0] $end
    $var wire 32 [# NSYM [31:0] $end
    $var wire 1 / clk $end
    $var wire 1 0 rst $end
    $var wire 1 1 sck $end
    $var wire 1 2 mosi $end
    $var wire 1 3 miso $end
    $var wire 1 4 cs $end
    $var wire 8 5 rx_shift [7:0] $end
    $var wire 8 6 tx_shift [7:0] $end
    $var wire 8 7 tx_byte [7:0] $end
    $var wire 3 8 bit_cnt [2:0] $end
    $var wire 1 9 spi_byte_done $end
    $var wire 1 : miso_reg $end
    $var wire 8 ; input_buffer[0] [7:0] $end
    $var wire 8 < input_buffer[1] [7:0] $end
    $var wire 8 = input_buffer[2] [7:0] $end
    $var wire 8 > input_buffer[3] [7:0] $end
    $var wire 8 ? input_buffer[4] [7:0] $end
    $var wire 8 @ input_buffer[5] [7:0] $end
    $var wire 8 A input_buffer[6] [7:0] $end
    $var wire 8 B input_buffer[7] [7:0] $end
    $var wire 8 C output_buffer[0] [7:0] $end
    $var wire 8 D output_buffer[1] [7:0] $end
    $var wire 8 E output_buffer[2] [7:0] $end
    $var wire 8 F output_buffer[3] [7:0] $end
    $var wire 8 G output_buffer[4] [7:0] $end
    $var wire 8 H output_buffer[5] [7:0] $end
    $var wire 8 I output_buffer[6] [7:0] $end
    $var wire 8 J output_buffer[7] [7:0] $end
    $var wire 16 K byte_index [15:0] $end
    $var wire 8 L command [7:0] $end
    $var wire 1 M processing $end
    $var wire 1 N send_bytes $end
    $var wire 16 O out_index [15:0] $end
    $var wire 64 P received_flat [63:0] $end
    $var wire 64 R corrected_flat [63:0] $end
    $var wire 64 T syndromes_flat [63:0] $end
    $var wire 64 V lambda_flat [63:0] $end
    $var wire 64 X error_magnitude_flat [63:0] $end
    $var wire 8 Z error_position [7:0] $end
    $scope module BM $end
     $var wire 32 [# DATA_WIDTH [31:0] $end
     $var wire 32 [# NSYM [31:0] $end
     $var wire 1 [ clk $end
     $var wire 1 \ rst $end
     $var wire 1 ] start $end
     $var wire 64 ^ syndromes [63:0] $end
     $var wire 1 ` done $end
     $var wire 64 a lambda [63:0] $end
     $var wire 3 \# STATE_IDLE [2:0] $end
     $var wire 3 ]# STATE_DISCREPANCY [2:0] $end
     $var wire 3 ^# STATE_UPDATE_POLY [2:0] $end
     $var wire 3 _# STATE_UPDATE_B [2:0] $end
     $var wire 3 `# STATE_DONE [2:0] $end
     $var wire 3 c state [2:0] $end
     $var wire 64 d C_flat [63:0] $end
     $var wire 64 f B_flat [63:0] $end
     $var wire 64 h T_flat [63:0] $end
     $var wire 8 j L [7:0] $end
     $var wire 8 k m [7:0] $end
     $var wire 8 l n [7:0] $end
     $var wire 8 m d [7:0] $end
     $var wire 8 n temp_sum [7:0] $end
     $var wire 8 o step_i [7:0] $end
     $var wire 8 p mult_a [7:0] $end
     $var wire 8 q mult_b [7:0] $end
     $var wire 8 r mult_result [7:0] $end
     $var wire 64 s set_elem__Vstatic__result [63:0] $end
     $scope module gf_mult_inst $end
      $var wire 8 u a [7:0] $end
      $var wire 8 v b [7:0] $end
      $var wire 8 w result [7:0] $end
      $var wire 16 x product [15:0] $end
      $var wire 32 y i [31:0] $end
     $upscope $end
    $upscope $end
    $scope module CHIEN $end
     $var wire 32 [# DATA_WIDTH [31:0] $end
     $var wire 32 [# NSYM [31:0] $end
     $var wire 32 a# N [31:0] $end
     $var wire 1 z clk $end
     $var wire 1 { rst $end
     $var wire 1 | start $end
     $var wire 64 } lambda [63:0] $end
     $var wire 1 !! done $end
     $var wire 255 "! error_position [254:0] $end
     $var wire 3 \# STATE_IDLE [2:0] $end
     $var wire 3 ]# STATE_POLY_EVAL_INIT [2:0] $end
     $var wire 3 ^# STATE_POLY_EVAL_MUL [2:0] $end
     $var wire 3 _# STATE_POLY_EVAL_ACCUM [2:0] $end
     $var wire 3 `# STATE_NEXT_INDEX [2:0] $end
     $var wire 3 b# STATE_DONE [2:0] $end
     $var wire 3 *! state [2:0] $end
     $var wire 8 +! index [7:0] $end
     $var wire 8 ,! l_index [7:0] $end
     $var wire 8 -! poly_eval [7:0] $end
     $var wire 8 .! alpha_power [7:0] $end
     $var wire 8 /! mult_a [7:0] $end
     $var wire 8 0! mult_b [7:0] $end
     $var wire 8 1! mult_result [7:0] $end
     $var wire 8 2! lambda_val [7:0] $end
     $var wire 8 3! accum [7:0] $end
     $var wire 255 4! setbit__Vstatic__tmp [254:0] $end
     $scope module mult_inst $end
      $var wire 8 <! a [7:0] $end
      $var wire 8 =! b [7:0] $end
      $var wire 8 >! result [7:0] $end
      $var wire 16 ?! product [15:0] $end
      $var wire 32 @! i [31:0] $end
     $upscope $end
    $upscope $end
    $scope module CORR $end
     $var wire 32 [# DATA_WIDTH [31:0] $end
     $var wire 32 [# NSYM [31:0] $end
     $var wire 1 A! clk $end
     $var wire 64 B! received_flat [63:0] $end
     $var wire 64 D! error_magnitude_flat [63:0] $end
     $var wire 8 F! error_position [7:0] $end
     $var wire 64 G! corrected_flat [63:0] $end
     $var wire 8 I! received[0] [7:0] $end
     $var wire 8 J! received[1] [7:0] $end
     $var wire 8 K! received[2] [7:0] $end
     $var wire 8 L! received[3] [7:0] $end
     $var wire 8 M! received[4] [7:0] $end
     $var wire 8 N! received[5] [7:0] $end
     $var wire 8 O! received[6] [7:0] $end
     $var wire 8 P! received[7] [7:0] $end
     $var wire 8 Q! error_magnitude[0] [7:0] $end
     $var wire 8 R! error_magnitude[1] [7:0] $end
     $var wire 8 S! error_magnitude[2] [7:0] $end
     $var wire 8 T! error_magnitude[3] [7:0] $end
     $var wire 8 U! error_magnitude[4] [7:0] $end
     $var wire 8 V! error_magnitude[5] [7:0] $end
     $var wire 8 W! error_magnitude[6] [7:0] $end
     $var wire 8 X! error_magnitude[7] [7:0] $end
     $var wire 1 Y! error_pos[0] $end
     $var wire 1 Z! error_pos[1] $end
     $var wire 1 [! error_pos[2] $end
     $var wire 1 \! error_pos[3] $end
     $var wire 1 ]! error_pos[4] $end
     $var wire 1 ^! error_pos[5] $end
     $var wire 1 _! error_pos[6] $end
     $var wire 1 `! error_pos[7] $end
     $var wire 8 a! corrected[0] [7:0] $end
     $var wire 8 b! corrected[1] [7:0] $end
     $var wire 8 c! corrected[2] [7:0] $end
     $var wire 8 d! corrected[3] [7:0] $end
     $var wire 8 e! corrected[4] [7:0] $end
     $var wire 8 f! corrected[5] [7:0] $end
     $var wire 8 g! corrected[6] [7:0] $end
     $var wire 8 h! corrected[7] [7:0] $end
    $upscope $end
    $scope module FORNEY $end
     $var wire 32 [# NSYM [31:0] $end
     $var wire 32 [# DATA_WIDTH [31:0] $end
     $var wire 1 i! clk $end
     $var wire 1 j! rst $end
     $var wire 64 k! syndromes [63:0] $end
     $var wire 64 m! lambda [63:0] $end
     $var wire 64 o! error_positions [63:0] $end
     $var wire 64 q! error_magnitude [63:0] $end
     $var wire 4 c# STATE_IDLE [3:0] $end
     $var wire 4 d# STATE_LOAD [3:0] $end
     $var wire 4 e# STATE_EVAL_Y_MUL [3:0] $end
     $var wire 4 f# STATE_EVAL_Y_ACC [3:0] $end
     $var wire 4 g# STATE_EVAL_DY_MUL [3:0] $end
     $var wire 4 h# STATE_EVAL_DY_ACC [3:0] $end
     $var wire 4 i# STATE_DIVIDE [3:0] $end
     $var wire 4 j# STATE_NEXT [3:0] $end
     $var wire 4 k# STATE_DONE [3:0] $end
     $var wire 4 s! state [3:0] $end
     $var wire 8 t! syndrome[0] [7:0] $end
     $var wire 8 u! syndrome[1] [7:0] $end
     $var wire 8 v! syndrome[2] [7:0] $end
     $var wire 8 w! syndrome[3] [7:0] $end
     $var wire 8 x! syndrome[4] [7:0] $end
     $var wire 8 y! syndrome[5] [7:0] $end
     $var wire 8 z! syndrome[6] [7:0] $end
     $var wire 8 {! syndrome[7] [7:0] $end
     $var wire 8 |! locator[0] [7:0] $end
     $var wire 8 }! locator[1] [7:0] $end
     $var wire 8 ~! locator[2] [7:0] $end
     $var wire 8 !" locator[3] [7:0] $end
     $var wire 8 "" locator[4] [7:0] $end
     $var wire 8 #" locator[5] [7:0] $end
     $var wire 8 $" locator[6] [7:0] $end
     $var wire 8 %" locator[7] [7:0] $end
     $var wire 8 &" err_position[0] [7:0] $end
     $var wire 8 '" err_position[1] [7:0] $end
     $var wire 8 (" err_position[2] [7:0] $end
     $var wire 8 )" err_position[3] [7:0] $end
     $var wire 8 *" err_position[4] [7:0] $end
     $var wire 8 +" err_position[5] [7:0] $end
     $var wire 8 ," err_position[6] [7:0] $end
     $var wire 8 -" err_position[7] [7:0] $end
     $var wire 8 ." magnitude[0] [7:0] $end
     $var wire 8 /" magnitude[1] [7:0] $end
     $var wire 8 0" magnitude[2] [7:0] $end
     $var wire 8 1" magnitude[3] [7:0] $end
     $var wire 8 2" magnitude[4] [7:0] $end
     $var wire 8 3" magnitude[5] [7:0] $end
     $var wire 8 4" magnitude[6] [7:0] $end
     $var wire 8 5" magnitude[7] [7:0] $end
     $var wire 32 6" error_idx [31:0] $end
     $var wire 32 7" j [31:0] $end
     $var wire 8 8" X [7:0] $end
     $var wire 8 9" Y [7:0] $end
     $var wire 8 :" DY [7:0] $end
     $var wire 8 ;" power [7:0] $end
     $var wire 8 <" power_dy [7:0] $end
     $var wire 8 =" mult_a [7:0] $end
     $var wire 8 >" mult_b [7:0] $end
     $var wire 8 ?" mult_result [7:0] $end
     $var wire 8 @" div_result [7:0] $end
     $scope module div_inst $end
      $var wire 8 A" a [7:0] $end
      $var wire 8 B" b [7:0] $end
      $var wire 8 C" result [7:0] $end
      $var wire 8 D" b_inv [7:0] $end
      $scope module inv_inst $end
       $var wire 8 E" a [7:0] $end
       $var wire 8 F" inv [7:0] $end
       $var wire 16 G" gf_mult__Vstatic__p [15:0] $end
       $var wire 4 H" gf_mult__Vstatic__j [3:0] $end
       $var wire 8 I" i [7:0] $end
       $var wire 8 J" r [7:0] $end
      $upscope $end
      $scope module mul_inst $end
       $var wire 8 K" a [7:0] $end
       $var wire 8 L" b [7:0] $end
       $var wire 8 M" result [7:0] $end
       $var wire 16 N" product [15:0] $end
       $var wire 32 O" i [31:0] $end
      $upscope $end
     $upscope $end
     $scope module mult_inst $end
      $var wire 8 P" a [7:0] $end
      $var wire 8 Q" b [7:0] $end
      $var wire 8 R" result [7:0] $end
      $var wire 16 S" product [15:0] $end
      $var wire 32 T" i [31:0] $end
     $upscope $end
     $scope module unnamedblk1 $end
      $var wire 32 U" k [31:0] $end
     $upscope $end
     $scope module unnamedblk2 $end
      $var wire 32 V" k [31:0] $end
     $upscope $end
    $upscope $end
    $scope module SYND $end
     $var wire 32 [# DATA_WIDTH [31:0] $end
     $var wire 32 [# NSYM [31:0] $end
     $var wire 32 l# MAX_LEN [31:0] $end
     $var wire 1 W" clk $end
     $var wire 1 X" rst $end
     $var wire 1 Y" start $end
     $var wire 2048 Z" codeword_flat [2047:0] $end
     $var wire 8 <# len [7:0] $end
     $var wire 128 =# syndromes_flat [127:0] $end
     $var wire 1 A# done $end
     $var wire 8 B# i [7:0] $end
     $var wire 8 C# j [7:0] $end
     $var wire 9 D# exp_index [8:0] $end
     $var wire 2 E# state [1:0] $end
     $var wire 32 m# IDLE [31:0] $end
     $var wire 32 n# CALC [31:0] $end
     $var wire 32 o# WAIT [31:0] $end
     $var wire 32 p# DONE [31:0] $end
     $var wire 8 F# mult_a [7:0] $end
     $var wire 8 G# mult_b [7:0] $end
     $var wire 8 H# add_a [7:0] $end
     $var wire 8 I# add_b [7:0] $end
     $var wire 8 J# mult_result [7:0] $end
     $var wire 8 K# add_result [7:0] $end
     $var wire 8 L# exp_val [7:0] $end
     $var wire 128 M# set_elem__Vstatic__temp [127:0] $end
     $scope module add_inst $end
      $var wire 8 Q# a [7:0] $end
      $var wire 8 R# b [7:0] $end
      $var wire 8 S# result [7:0] $end
     $upscope $end
     $scope module exp_table $end
      $var wire 9 T# in [8:0] $end
      $var wire 8 U# out [7:0] $end
     $upscope $end
     $scope module mult_inst $end
      $var wire 8 V# a [7:0] $end
      $var wire 8 W# b [7:0] $end
      $var wire 8 X# result [7:0] $end
      $var wire 16 Y# product [15:0] $end
      $var wire 32 Z# i [31:0] $end
     $upscope $end
    $upscope $end
   $upscope $end
  $upscope $end
 $upscope $end
$enddefinitions $end


#0
1#
0$
0%
0&
0'
0(
1)
0*
0+
0,
0-
0.
1/
00
01
02
03
04
b00000000 5
b00000000 6
b00000000 7
b000 8
09
0:
b00000000 ;
b00000000 <
b00000000 =
b00000000 >
b00000000 ?
b00000000 @
b00000000 A
b00000000 B
b00000000 C
b00000000 D
b00000000 E
b00000000 F
b00000000 G
b00000000 H
b00000000 I
b00000000 J
b0000000000000000 K
b00000000 L
0M
0N
b0000000000000000 O
b0000000000000000000000000000000000000000000000000000000000000000 P
b0000000000000000000000000000000000000000000000000000000000000000 R
b0000000000000000000000000000000000000000000000000000000000000000 T
b0000000000000000000000000000000000000000000000000000000000000000 V
b0000000000000000000000000000000000000000000000000000000000000000 X
b00000000 Z
1[
0\
0]
b0000000000000000000000000000000000000000000000000000000000000000 ^
0`
b0000000000000000000000000000000000000000000000000000000000000000 a
b000 c
b0000000000000000000000000000000000000000000000000000000000000000 d
b0000000000000000000000000000000000000000000000000000000000000000 f
b0000000000000000000000000000000000000000000000000000000000000000 h
b00000000 j
b00000000 k
b00000000 l
b00000000 m
b00000000 n
b00000000 o
b00000000 p
b00000000 q
b00000000 r
b0000000000000000000000000000000000000000000000000000000000000000 s
b00000000 u
b00000000 v
b00000000 w
b0000000000000000 x
b00000000000000000000000000000111 y
1z
0{
0|
b0000000000000000000000000000000000000000000000000000000000000000 }
0!!
b000000000000000000000000000000000000000000000000000000000000000000000000000000000000000000000000000000000000000000000000000000000000000000000000000000000000000000000000000000000000000000000000000000000000000000000000000000000000000000000000000000000000000 "!
b000 *!
b00000000 +!
b00000000 ,!
b00000000 -!
b00000000 .!
b00000000 /!
b00000000 0!
b00000000 1!
b00000000 2!
b00000000 3!
b000000000000000000000000000000000000000000000000000000000000000000000000000000000000000000000000000000000000000000000000000000000000000000000000000000000000000000000000000000000000000000000000000000000000000000000000000000000000000000000000000000000000000 4!
b00000000 <!
b00000000 =!
b00000000 >!
b0000000000000000 ?!
b00000000000000000000000000000111 @!
1A!
b0000000000000000000000000000000000000000000000000000000000000000 B!
b0000000000000000000000000000000000000000000000000000000000000000 D!
b00000000 F!
b0000000000000000000000000000000000000000000000000000000000000000 G!
b00000000 I!
b00000000 J!
b00000000 K!
b00000000 L!
b00000000 M!
b00000000 N!
b00000000 O!
b00000000 P!
b00000000 Q!
b00000000 R!
b00000000 S!
b00000000 T!
b00000000 U!
b00000000 V!
b00000000 W!
b00000000 X!
0Y!
0Z!
0[!
0\!
0]!
0^!
0_!
0`!
b00000000 a!
b00000000 b!
b00000000 c!
b00000000 d!
b00000000 e!
b00000000 f!
b00000000 g!
b00000000 h!
1i!
0j!
b0000000000000000000000000000000000000000000000000000000000000000 k!
b0000000000000000000000000000000000000000000000000000000000000000 m!
b0000000000000000000000000000000000000000000000000000000000000000 o!
b0000000000000000000000000000000000000000000000000000000000000000 q!
b0001 s!
b00000000 t!
b00000000 u!
b00000000 v!
b00000000 w!
b00000000 x!
b00000000 y!
b00000000 z!
b00000000 {!
b00000000 |!
b00000000 }!
b00000000 ~!
b00000000 !"
b00000000 ""
b00000000 #"
b00000000 $"
b00000000 %"
b00000000 &"
b00000000 '"
b00000000 ("
b00000000 )"
b00000000 *"
b00000000 +"
b00000000 ,"
b00000000 -"
b00000000 ."
b00000000 /"
b00000000 0"
b00000000 1"
b00000000 2"
b00000000 3"
b00000000 4"
b00000000 5"
b00000000000000000000000000000000 6"
b00000000000000000000000000000000 7"
b00000000 8"
b00000000 9"
b00000000 :"
b00000000 ;"
b00000000 <"
b00000000 ="
b00000000 >"
b00000000 ?"
b00000000 @"
b00000000 A"
b00000000 B"
b00000000 C"
b00000000 D"
b00000000 E"
b00000000 F"
b0000000000000000 G"
b0000 H"
b00000000 I"
b00000000 J"
b00000000 K"
b00000000 L"
b00000000 M"
b0000000000000000 N"
b00000000000000000000000000000111 O"
b00000000 P"
b00000000 Q"
b00000000 R"
b0000000000000000 S"
b00000000000000000000000000000111 T"
b00000000000000000000000000001000 U"
b00000000000000000000000000000000 V"
1W"
0X"
0Y"
b00000000000000000000000000000000000000000000000000000000000000000000000000000000000000000000000000000000000000000000000000000000000000000000000000000000000000000000000000000000000000000000000000000000000000000000000000000000000000000000000000000000000000000000000000000000000000000000000000000000000000000000000000000000000000000000000000000000000000000000000000000000000000000000000000000000000000000000000000000000000000000000000000000000000000000000000000000000000000000000000000000000000000000000000000000000000000000000000000000000000000000000000000000000000000000000000000000000000000000000000000000000000000000000000000000000000000000000000000000000000000000000000000000000000000000000000000000000000000000000000000000000000000000000000000000000000000000000000000000000000000000000000000000000000000000000000000000000000000000000000000000000000000000000000000000000000000000000000000000000000000000000000000000000000000000000000000000000000000000000000000000000000000000000000000000000000000000000000000000000000000000000000000000000000000000000000000000000000000000000000000000000000000000000000000000000000000000000000000000000000000000000000000000000000000000000000000000000000000000000000000000000000000000000000000000000000000000000000000000000000000000000000000000000000000000000000000000000000000000000000000000000000000000000000000000000000000000000000000000000000000000000000000000000000000000000000000000000000000000000000000000000000000000000000000000000000000000000000000000000000000000000000000000000000000000000000000000000000000000000000000000000000000000000000000000000000000000000000000000000000000000000000000000000000000000000000000000000000000000000000000000000000000000000000000000000000000000000000000000000000000000000000000000000000000000000000000000000000000000000000000000000000000000000000000000000000000000000000000000000000000000000000000000000000000000000000000000000000000000000000000000000000000000000000000000000000000000000000000000000000000000000000000000000000000000000000000000000000000000000000000000000 Z"
b00001000 <#
b00000000000000000000000000000000000000000000000000000000000000000000000000000000000000000000000000000000000000000000000000000000 =#
0A#
b00000000 B#
b00000000 C#
b000000000 D#
b00 E#
b00000000 F#
b00000000 G#
b00000000 H#
b00000000 I#
b00000000 J#
b00000000 K#
b00000001 L#
b00000000000000000000000000000000000000000000000000000000000000000000000000000000000000000000000000000000000000000000000000000000 M#
b00000000 Q#
b00000000 R#
b00000000 S#
b000000000 T#
b00000001 U#
b00000000 V#
b00000000 W#
b00000000 X#
b0000000000000000 Y#
b00000000000000000000000000000111 Z#
b00000000000000000000000000001000 [#
b000 \#
b001 ]#
b010 ^#
b011 _#
b100 `#
b00000000000000000000000011111111 a#
b101 b#
b0000 c#
b0001 d#
b0010 e#
b0011 f#
b0100 g#
b0101 h#
b0110 i#
b0111 j#
b1000 k#
b00000000000000000000000100000000 l#
b00000000000000000000000000000000 m#
b00000000000000000000000000000001 n#
b00000000000000000000000000000010 o#
b00000000000000000000000000000011 p#
#1000
#1500
1%
1+
11
b001 8
#2000
0%
0+
01
#2500
1%
1+
11
b010 8
#3000
0%
0+
01
#3500
1%
1+
11
b011 8
#4000
0%
0+
01
#4500
1%
1+
11
b100 8
#5000
0%
0+
01
#5500
1%
1+
11
b101 8
#6000
0%
0+
01
#6500
1%
1+
11
b110 8
#7000
0%
1&
0+
1,
01
12
#7500
1%
1+
11
b00000001 5
b111 8
#8000
0%
0&
0+
0,
01
02
#8500
1%
1+
11
b00000010 5
b000 8
19
#9000
0%
0+
01
#9500
1%
1+
11
b00000100 5
b001 8
09
#10000
0%
1&
0+
1,
01
12
#10500
1%
1+
11
b00001001 5
b010 8
#11000
0%
0&
0+
0,
01
02
#11500
1%
1+
11
b00010010 5
b011 8
#12000
0%
1&
0+
1,
01
12
#12500
1%
1+
11
b00100101 5
b100 8
#13000
0%
0&
0+
0,
01
02
#13500
1%
1+
11
b01001010 5
b101 8
#14000
0%
1&
0+
1,
01
12
#14500
1%
1+
11
b10010101 5
b110 8
#15000
0%
0&
0+
0,
01
02
#15500
1%
1+
11
b00101010 5
b111 8
#16000
0%
1&
0+
1,
01
12
#16500
1%
1+
11
b01010101 5
b000 8
19
#17000
0%
0+
01
#18000
0&
0,
02
#18500
1%
1+
11
b10101010 5
b001 8
09
#19000
0%
0+
01
#19500
1%
1+
11
b01010100 5
b010 8
#20000
0%
0+
01
#20500
1%
1+
11
b10101000 5
b011 8
#21000
0%
0+
01
#21500
1%
1+
11
b01010000 5
b100 8
#22000
0%
0+
01
#22500
1%
1+
11
b10100000 5
b101 8
#23000
0%
0+
01
#23500
1%
1+
11
b01000000 5
b110 8
#24000
0%
1&
0+
1,
01
12
#24500
1%
1+
11
b10000001 5
b111 8
#25000
0%
0&
0+
0,
01
02
#25500
1%
1+
11
b00000010 5
b000 8
19
#26000
0%
0+
01
#26500
1%
1+
11
b00000100 5
b001 8
09
#27000
0%
1&
0+
1,
01
12
#27500
1%
1+
11
b00001001 5
b010 8
#28000
0%
0&
0+
0,
01
02
#28500
1%
1+
11
b00010010 5
b011 8
#29000
0%
1&
0+
1,
01
12
#29500
1%
1+
11
b00100101 5
b100 8
#30000
0%
0&
0+
0,
01
02
#30500
1%
1+
11
b01001010 5
b101 8
#31000
0%
1&
0+
1,
01
12
#31500
1%
1+
11
b10010101 5
b110 8
#32000
0%
0&
0+
0,
01
02
#32500
1%
1+
11
b00101010 5
b111 8
#33000
0%
1&
0+
1,
01
12
#33500
1%
1+
11
b01010101 5
b000 8
19
#34000
0%
0&
0+
0,
01
02
#34500
1%
1+
11
b10101010 5
b001 8
09
#35000
0%
1&
0+
1,
01
12
#35500
1%
1+
11
b01010101 5
b010 8
#36000
0%
0&
0+
0,
01
02
#36500
1%
1+
11
b10101010 5
b011 8
#37000
0%
1&
0+
1,
01
12
#37500
1%
1+
11
b01010101 5
b100 8
#38000
0%
0&
0+
0,
01
02
#38500
1%
1+
11
b10101010 5
b101 8
#39000
0%
1&
0+
1,
01
12
#39500
1%
1+
11
b01010101 5
b110 8
#40000
0%
0&
0+
0,
01
02
#40500
1%
1+
11
b10101010 5
b111 8
#41000
0%
1&
0+
1,
01
12
#41500
1%
1+
11
b01010101 5
b000 8
19
#42000
0%
0&
0+
0,
01
02
#42500
1%
1+
11
b10101010 5
b001 8
09
#43000
0%
1&
0+
1,
01
12
#43500
1%
1+
11
b01010101 5
b010 8
#44000
0%
0&
0+
0,
01
02
#44500
1%
1+
11
b10101010 5
b011 8
#45000
0%
1&
0+
1,
01
12
#45500
1%
1+
11
b01010101 5
b100 8
#46000
0%
0&
0+
0,
01
02
#46500
1%
1+
11
b10101010 5
b101 8
#47000
0%
1&
0+
1,
01
12
#47500
1%
1+
11
b01010101 5
b110 8
#48000
0%
0&
0+
0,
01
02
#48500
1%
1+
11
b10101010 5
b111 8
#49000
0%
1&
0+
1,
01
12
#49500
1%
1+
11
b01010101 5
b000 8
19
#50000
0%
0&
0+
0,
01
02
#50500
1%
1+
11
b10101010 5
b001 8
09
#51000
0%
1&
0+
1,
01
12
#51500
1%
1+
11
b01010101 5
b010 8
#52000
0%
0&
0+
0,
01
02
#52500
1%
1+
11
b10101010 5
b011 8
#53000
0%
1&
0+
1,
01
12
#53500
1%
1+
11
b01010101 5
b100 8
#54000
0%
0&
0+
0,
01
02
#54500
1%
1+
11
b10101010 5
b101 8
#55000
0%
1&
0+
1,
01
12
#55500
1%
1+
11
b01010101 5
b110 8
#56000
0%
0&
0+
0,
01
02
#56500
1%
1+
11
b10101010 5
b111 8
#57000
0%
1&
0+
1,
01
12
#57500
1%
1+
11
b01010101 5
b000 8
19
#58000
0%
0&
0+
0,
01
02
#58500
1%
1+
11
b10101010 5
b001 8
09
#59000
0%
1&
0+
1,
01
12
#59500
1%
1+
11
b01010101 5
b010 8
#60000
0%
0&
0+
0,
01
02
#60500
1%
1+
11
b10101010 5
b011 8
#61000
0%
1&
0+
1,
01
12
#61500
1%
1+
11
b01010101 5
b100 8
#62000
0%
0&
0+
0,
01
02
#62500
1%
1+
11
b10101010 5
b101 8
#63000
0%
1&
0+
1,
01
12
#63500
1%
1+
11
b01010101 5
b110 8
#64000
0%
0&
0+
0,
01
02
#64500
1%
1+
11
b10101010 5
b111 8
#65000
0%
1&
0+
1,
01
12
#65500
1%
1+
11
b01010101 5
b000 8
19
#66000
0%
0&
0+
0,
01
02
#66500
1%
1+
11
b10101010 5
b001 8
09
#67000
0%
1&
0+
1,
01
12
#67500
1%
1+
11
b01010101 5
b010 8
#68000
0%
0&
0+
0,
01
02
#68500
1%
1+
11
b10101010 5
b011 8
#69000
0%
1&
0+
1,
01
12
#69500
1%
1+
11
b01010101 5
b100 8
#70000
0%
0&
0+
0,
01
02
#70500
1%
1+
11
b10101010 5
b101 8
#71000
0%
1&
0+
1,
01
12
#71500
1%
1+
11
b01010101 5
b110 8
#72000
0%
0&
0+
0,
01
02
#72500
1%
1+
11
b10101010 5
b111 8
#73000
0%
1&
0+
1,
01
12
#73500
1%
1+
11
b01010101 5
b000 8
19
#74000
0%
0&
0+
0,
01
02
#74500
1%
1+
11
b10101010 5
b001 8
09
#75000
0%
1&
0+
1,
01
12
#75500
1%
1+
11
b01010101 5
b010 8
#76000
0%
0&
0+
0,
01
02
#76500
1%
1+
11
b10101010 5
b011 8
#77000
0%
1&
0+
1,
01
12
#77500
1%
1+
11
b01010101 5
b100 8
#78000
0%
0&
0+
0,
01
02
#78500
1%
1+
11
b10101010 5
b101 8
#79000
0%
1&
0+
1,
01
12
#79500
1%
1+
11
b01010101 5
b110 8
#80000
0%
0&
0+
0,
01
02
#80500
1%
1+
11
b10101010 5
b111 8
#81000
0%
1&
0+
1,
01
12
#81500
1%
1+
11
b01010101 5
b000 8
19
#82000
0%
0&
0+
0,
01
02
#82500
1%
1+
11
b10101010 5
b001 8
09
#83000
0%
1&
0+
1,
01
12
#83500
1%
1+
11
b01010101 5
b010 8
#84000
0%
0&
0+
0,
01
02
#84500
1%
1+
11
b10101010 5
b011 8
#85000
0%
1&
0+
1,
01
12
#85500
1%
1+
11
b01010101 5
b100 8
#86000
0%
0&
0+
0,
01
02
#86500
1%
1+
11
b10101010 5
b101 8
#87000
0%
1&
0+
1,
01
12
#87500
1%
1+
11
b01010101 5
b110 8
#88000
0%
0&
0+
0,
01
02
#88500
1%
1+
11
b10101010 5
b111 8
#89000
0%
1&
0+
1,
01
12
#89500
1%
1+
11
b01010101 5
b000 8
19
#90000
0%
0+
01
#91000
0&
0,
02
#91500
1%
1+
11
b10101010 5
b001 8
09
#92000
0%
0+
01
#92500
1%
1+
11
b01010100 5
b010 8
#93000
0%
0+
01
#93500
1%
1+
11
b10101000 5
b011 8
#94000
0%
0+
01
#94500
1%
1+
11
b01010000 5
b100 8
#95000
0%
0+
01
#95500
1%
1+
11
b10100000 5
b101 8
#96000
0%
0+
01
#96500
1%
1+
11
b01000000 5
b110 8
#97000
0%
1&
0+
1,
01
12
#97500
1%
1+
11
b10000001 5
b111 8
#98000
0%
0&
0+
0,
01
02
#98500
1%
1+
11
b00000010 5
b000 8
19
#99000
0%
0+
01
#99500
1%
1+
11
b00000100 5
b001 8
09
#100000
0#
0%
1&
0)
0+
1,
0/
01
12
0[
0z
0A!
0i!
0W"
#100500
1%
1+
11
b00001001 5
b010 8
#101000
0%
0&
0+
0,
01
02
#101500
1%
1+
11
b00010010 5
b011 8
#102000
0%
1&
0+
1,
01
12
#102500
1%
1+
11
b00100101 5
b100 8
#103000
0%
0&
0+
0,
01
02
#103500
1%
1+
11
b01001010 5
b101 8
#104000
0%
1&
0+
1,
01
12
#104500
1%
1+
11
b10010101 5
b110 8
#105000
0%
0&
0+
0,
01
02
#105500
1%
1+
11
b00101010 5
b111 8
#106000
0%
1&
0+
1,
01
12
#106500
1%
1+
11
b01010101 5
b000 8
19
#107000
0%
0&
0+
0,
01
02
#107500
1%
1+
11
b10101010 5
b001 8
09
#108000
0%
1&
0+
1,
01
12
#108500
1%
1+
11
b01010101 5
b010 8
#109000
0%
0&
0+
0,
01
02
#109500
1%
1+
11
b10101010 5
b011 8
#110000
0%
1&
0+
1,
01
12
#110500
1%
1+
11
b01010101 5
b100 8
#111000
0%
0&
0+
0,
01
02
#111500
1%
1+
11
b10101010 5
b101 8
#112000
0%
1&
0+
1,
01
12
#112500
1%
1+
11
b01010101 5
b110 8
#113000
0%
0&
0+
0,
01
02
#113500
1%
1+
11
b10101010 5
b111 8
#114000
0%
1&
0+
1,
01
12
#114500
1%
1+
11
b01010101 5
b000 8
19
#115000
0%
0&
0+
0,
01
02
#115500
1%
1+
11
b10101010 5
b001 8
09
#116000
0%
1&
0+
1,
01
12
#116500
1%
1+
11
b01010101 5
b010 8
#117000
0%
0&
0+
0,
01
02
#117500
1%
1+
11
b10101010 5
b011 8
#118000
0%
1&
0+
1,
01
12
#118500
1%
1+
11
b01010101 5
b100 8
#119000
0%
0&
0+
0,
01
02
#119500
1%
1+
11
b10101010 5
b101 8
#120000
0%
1&
0+
1,
01
12
#120500
1%
1+
11
b01010101 5
b110 8
#121000
0%
0&
0+
0,
01
02
#121500
1%
1+
11
b10101010 5
b111 8
#122000
0%
1&
0+
1,
01
12
#122500
1%
1+
11
b01010101 5
b000 8
19
#123000
0%
0&
0+
0,
01
02
#123500
1%
1+
11
b10101010 5
b001 8
09
#124000
0%
1&
0+
1,
01
12
#124500
1%
1+
11
b01010101 5
b010 8
#125000
0%
0&
0+
0,
01
02
#125500
1%
1+
11
b10101010 5
b011 8
#126000
0%
1&
0+
1,
01
12
